…
- 以上で作成した度数（`Freq`），行変数（`PSES`），列変数（`MHS`）のベクトルを用いてデータを作成する．


```r
# 度数，行変数，列変数からなるデータを作成
d <- tibble(Freq, PSES, MHS)
# データの確認
d
```

```
## # A tibble: 24 × 3
##     Freq PSES  MHS  
##    <dbl> <fct> <fct>
##  1    64 1     1    
##  2    94 1     2    
##  3    58 1     3    
##  4    46 1     4    
##  5    57 2     1    
##  6    94 2     2    
##  7    54 2     3    
##  8    40 2     4    
##  9    57 3     1    
## 10   105 3     2    
## # … with 14 more rows
```
…
## 個票データから集計データを作成

- 個票データから集計データを作成する方法はいくつか考えられるが，ここでは`count`関数を用いる．


```r
# スターウォーズデータ
starwars
```

```
## # A tibble: 87 × 14
##    name     height  mass hair_color skin_color eye_color birth_year sex   gender
##    <chr>     <int> <dbl> <chr>      <chr>      <chr>          <dbl> <chr> <chr> 
##  1 Luke Sk…    172    77 blond      fair       blue            19   male  mascu…
##  2 C-3PO       167    75 <NA>       gold       yellow         112   none  mascu…
##  3 R2-D2        96    32 <NA>       white, bl… red             33   none  mascu…
##  4 Darth V…    202   136 none       white      yellow          41.9 male  mascu…
##  5 Leia Or…    150    49 brown      light      brown           19   fema… femin…
##  6 Owen La…    178   120 brown, gr… light      blue            52   male  mascu…
##  7 Beru Wh…    165    75 brown      light      blue            47   fema… femin…
##  8 R5-D4        97    32 <NA>       white, red red             NA   none  mascu…
##  9 Biggs D…    183    84 black      light      brown           24   male  mascu…
## 10 Obi-Wan…    182    77 auburn, w… fair       blue-gray       57   male  mascu…
## # … with 77 more rows, and 5 more variables: homeworld <chr>, species <chr>,
## #   films <list>, vehicles <list>, starships <list>
```
…
